pk\osgi\project\pomocnikgracza\GUI\internal\NickChooser$3.class
pk\osgi\project\pomocnikgracza\GUI\internal\Game.class
pk\osgi\project\pomocnikgracza\GUI\internal\GUI$2.class
pk\osgi\project\pomocnikgracza\GUI\internal\GUI$5.class
pk\osgi\project\pomocnikgracza\GUI\internal\GUIActivator.class
pk\osgi\project\pomocnikgracza\GUI\internal\GUI$14.class
pk\osgi\project\pomocnikgracza\GUI\internal\GUI$7.class
pk\osgi\project\pomocnikgracza\GUI\internal\PEGI.class
pk\osgi\project\pomocnikgracza\GUI\internal\GUI$1.class
pk\osgi\project\pomocnikgracza\GUI\internal\GUI$10.class
pk\osgi\project\pomocnikgracza\GUI\internal\GUI$9.class
pk\osgi\project\pomocnikgracza\GUI\internal\GUI$3.class
pk\osgi\project\pomocnikgracza\GUI\internal\GamesAdder$1.class
pk\osgi\project\pomocnikgracza\GUI\internal\GUI$4.class
pk\osgi\project\pomocnikgracza\GUI\internal\GUIActivator$1.class
pk\osgi\project\pomocnikgracza\GUI\internal\GamesAdder$3.class
pk\osgi\project\pomocnikgracza\GUI\internal\GUI$6.class
pk\osgi\project\pomocnikgracza\GUI\internal\GUI.class
pk\osgi\project\pomocnikgracza\GUI\internal\NickChooser$2.class
pk\osgi\project\pomocnikgracza\GUI\internal\NickChooser$1.class
pk\osgi\project\pomocnikgracza\GUI\internal\NickChooser.class
pk\osgi\project\pomocnikgracza\GUI\internal\Zdjecie.class
pk\osgi\project\pomocnikgracza\GUI\internal\GUI$13.class
pk\osgi\project\pomocnikgracza\GUI\internal\GamesAdder$2.class
pk\osgi\project\pomocnikgracza\GUI\internal\GUI$8.class
pk\osgi\project\pomocnikgracza\GUI\internal\Zdjecie$1.class
pk\osgi\project\pomocnikgracza\GUI\internal\Achievements.class
pk\osgi\project\pomocnikgracza\GUI\internal\GUI$12.class
pk\osgi\project\pomocnikgracza\GUI\internal\DataBase.class
pk\osgi\project\pomocnikgracza\GUI\internal\GamesAdder.class
pk\osgi\project\pomocnikgracza\GUI\internal\GUI$11.class
